<svg width="22" height="22" viewBox="0 0 22 22" fill="none" xmlns="http://www.w3.org/2000/svg">
<path d="M18.3631 1.06348H10.7859C10.4285 1.06348 10.1387 1.35326 10.1387 1.71071V5.67909H19.0104V1.71071C19.0104 1.35326 18.7206 1.06348 18.3631 1.06348Z" fill="#FF9E80"/>
<path d="M20.7915 6.97363H8.17188V19.1551H20.7915C21.4589 19.1551 21.9999 18.6141 21.9999 17.9467V8.18209C21.9999 7.5147 21.4589 6.97363 20.7915 6.97363ZM12.0839 17.6927H11.2467C10.8892 17.6927 10.5994 17.4029 10.5994 17.0454C10.5994 16.688 10.8892 16.3982 11.2467 16.3982H12.0839C12.4413 16.3982 12.7311 16.688 12.7311 17.0454C12.7311 17.4029 12.4413 17.6927 12.0839 17.6927ZM12.0839 15.7031H11.2467C10.8892 15.7031 10.5994 15.4133 10.5994 15.0558C10.5994 14.6984 10.8892 14.4086 11.2467 14.4086H12.0839C12.4413 14.4086 12.7311 14.6984 12.7311 15.0558C12.7311 15.4133 12.4413 15.7031 12.0839 15.7031ZM12.0839 13.7135H11.2467C10.8892 13.7135 10.5994 13.4237 10.5994 13.0662C10.5994 12.7088 10.8892 12.419 11.2467 12.419H12.0839C12.4413 12.419 12.7311 12.7088 12.7311 13.0662C12.7311 13.4237 12.4413 13.7135 12.0839 13.7135ZM14.9924 17.6927H14.1552C13.7978 17.6927 13.508 17.4029 13.508 17.0454C13.508 16.688 13.7978 16.3982 14.1552 16.3982H14.9924C15.3499 16.3982 15.6397 16.688 15.6397 17.0454C15.6397 17.4029 15.3499 17.6927 14.9924 17.6927ZM14.9924 15.7031H14.1552C13.7978 15.7031 13.508 15.4133 13.508 15.0558C13.508 14.6984 13.7978 14.4086 14.1552 14.4086H14.9924C15.3499 14.4086 15.6397 14.6984 15.6397 15.0558C15.6397 15.4133 15.3499 15.7031 14.9924 15.7031ZM14.9924 13.7135H14.1552C13.7978 13.7135 13.508 13.4237 13.508 13.0662C13.508 12.7088 13.7978 12.419 14.1552 12.419H14.9924C15.3499 12.419 15.6397 12.7088 15.6397 13.0662C15.6397 13.4237 15.3499 13.7135 14.9924 13.7135ZM17.901 17.6927H17.0638C16.7063 17.6927 16.4165 17.4029 16.4165 17.0454C16.4165 16.688 16.7063 16.3982 17.0638 16.3982H17.901C18.2584 16.3982 18.5482 16.688 18.5482 17.0454C18.5482 17.4029 18.2584 17.6927 17.901 17.6927ZM17.901 15.7031H17.0638C16.7063 15.7031 16.4165 15.4133 16.4165 15.0558C16.4165 14.6984 16.7063 14.4086 17.0638 14.4086H17.901C18.2584 14.4086 18.5482 14.6984 18.5482 15.0558C18.5482 15.4133 18.2584 15.7031 17.901 15.7031ZM17.901 13.7135H17.0638C16.7063 13.7135 16.4165 13.4237 16.4165 13.0662C16.4165 12.7088 16.7063 12.419 17.0638 12.419H17.901C18.2584 12.419 18.5482 12.7088 18.5482 13.0662C18.5482 13.4237 18.2584 13.7135 17.901 13.7135ZM17.901 10.5055H11.2467C10.8892 10.5055 10.5994 10.2157 10.5994 9.85825C10.5994 9.5008 10.8892 9.21102 11.2467 9.21102H17.901C18.2584 9.21102 18.5482 9.5008 18.5482 9.85825C18.5482 10.2157 18.2584 10.5055 17.901 10.5055Z" fill="#FF9E80"/>
<path d="M6.2292 5.19336H3.14919C2.79229 5.19336 2.50195 5.4837 2.50195 5.8406V20.289C2.50195 20.6459 2.79229 20.9363 3.14919 20.9363H6.22915C6.58605 20.9363 6.87639 20.6459 6.87639 20.289V5.8406H6.87644C6.87644 5.4837 6.5861 5.19336 6.2292 5.19336Z" fill="#FF9E80"/>
<path d="M0 8.18209V17.9467C0 18.6141 0.541062 19.1551 1.20845 19.1551V6.97363C0.541062 6.97363 0 7.5147 0 8.18209Z" fill="#FF9E80"/>
</svg>
